SPOTIFY TURKISH POP MUSIC ANALYSIS
…
# A total match as a subset of Turkish pop tagged artist with also the rock tag
collectionAll_filtered %>%
  filter(Genre=="turkish rock")

## # A tibble: 70 x 22
##    artist_name album_name track_name artist_id track_id track_popularity
##    <chr>       <chr>      <chr>      <chr>     <chr>               <int>
##  1 Tarkan      lrm Sa~ Simarik    2yMN0IP2~ 6vEL7E8~               61
##  2 Tarkan      Her ey F~ Her ey F~ 2yMN0IP2~ 0JHarUs~               58
##  3 Tarkan      Karma      Ay         2yMN0IP2~ 0oVnsgy~               55
##  4 Tarkan      Karma      Kuzu Kuzu  2yMN0IP2~ 3ajYmPD~               55
##  5 Tarkan      Aacayipsin K Gnei 2yMN0IP2~ 1tiIKel~               54
##  6 Tarkan      lrm Sa~ lrm Sa~ 2yMN0IP2~ 6nAgxB5~               54
##  7 Tarkan      10         Kedi Gibi  2yMN0IP2~ 1BfpV5h~               53
##  8 Tarkan      Karma      Sen Baka~ 2yMN0IP2~ 0ZJKPGK~               50
##  9 Tarkan      lrm Sa~ Salina Sa~ 2yMN0IP2~ 4PGsEvm~               50
## 10 Tarkan      10         Yolla      2yMN0IP2~ 1vZAYNF~               49
## # ... with 60 more rows, and 16 more variables: album_id <chr>,
## #   duration_ms <int>, danceability <dbl>, energy <dbl>, key <int>,
## #   loudness <dbl>, mode <int>, speechiness <dbl>, acousticness <dbl>,
## #   instrumentalness <dbl>, liveness <dbl>, valence <dbl>, tempo <dbl>,
## #   artist_popularity <int>, artist_followers <int>, Genre <chr>
